{
    "mail" : "arthur.devaux@supinfo.com",
    "mail-desc": "C'est vrai, les mails c'est pas mal non plus pour échanger des documents par exemple, ou convenir d'un rendez-vous à intégrer à l'agenda.",
    "tel": "+33681167195",
    "tel-desc":"Je vis avec mon temps, c'est mieux pour apprendre à se connaître, peut-être irions-nous plus loin... tel un entretien.",
    "linkedin": "https://www.linkedin.com/in/devart",
    "link-desc": "Vous l'aviez vu venir ? Il y a encore plus de détails sur mon profil.",
    "adresse": "Région Parisienne",
    "adresse-desc": "Le coeur en Normandie, les méninges à Paris !"
}