[
    {
        "skill" : "Gestion de projet",
        "percent-level" : "95",
        "desc": ""
    },
    {
        "skill" : "Communication",
        "percent-level" : "90",
        "desc": ""
    },
    {
        "skill" : "Marketing",
        "percent-level" : "80",
        "desc": ""
    },
    {
        "skill" : "Algorithmie",
        "percent-level" : "90",
        "desc": ""
    },
    {
        "skill" : "Conception",
        "percent-level" : "85",
        "desc": ""
    },
    {
        "skill" : "Dev' Web",
        "percent-level" : "95",
        "desc": "L'essentiel de mes expériences m'a amené à privilégier la conception web face aux solutions client lourd."
    },
    {
        "skill" : "Dev' Logiciel",
        "percent-level" : "80",
        "desc": ""
    },
    {
        "skill" : "Design",
        "percent-level" : "65",
        "desc": "Ca prend enormément de temps de designer, c'est un travail à part entière !"
    }
]